<?xml version="1.0" encoding="UTF-8" standalone="no"?>
<!-- Created with Inkscape (http://www.inkscape.org/) -->

<svg
   width="48"
   height="48"
   viewBox="0 0 12.7 12.7"
   version="1.1"
   id="svg22834"
   inkscape:version="1.1 (c68e22c387, 2021-05-23)"
   sodipodi:docname="logo_v1.svg"
   xmlns:inkscape="http://www.inkscape.org/namespaces/inkscape"
   xmlns:sodipodi="http://sodipodi.sourceforge.net/DTD/sodipodi-0.dtd"
   xmlns="http://www.w3.org/2000/svg"
   xmlns:svg="http://www.w3.org/2000/svg">
  <sodipodi:namedview
     id="namedview22836"
     pagecolor="#ffffff"
     bordercolor="#666666"
     borderopacity="1.0"
     inkscape:pageshadow="2"
     inkscape:pageopacity="0.0"
     inkscape:pagecheckerboard="0"
     inkscape:document-units="mm"
     showgrid="false"
     units="px"
     inkscape:zoom="2.3255284"
     inkscape:cx="24.295554"
     inkscape:cy="126.85289"
     inkscape:window-width="1920"
     inkscape:window-height="1011"
     inkscape:window-x="0"
     inkscape:window-y="0"
     inkscape:window-maximized="1"
     inkscape:current-layer="layer1" />
  <defs
     id="defs22831" />
  <g
     inkscape:label="Слой 1"
     inkscape:groupmode="layer"
     id="layer1">
    <g
       id="g22924"
       transform="translate(-0.07359757,-0.23201349)">
      <circle
         style="display:inline;fill:#2cccc3;fill-opacity:1;stroke-width:0.110872;paint-order:stroke markers fill"
         id="path5482"
         cx="3.5433373"
         cy="3.7017515"
         r="2.0487247" />
      <circle
         style="display:inline;fill:#5626c4;fill-opacity:1;stroke-width:0.110872;paint-order:stroke markers fill"
         id="path5482-0"
         cx="9.3038578"
         cy="3.7017515"
         r="2.0487247" />
      <circle
         style="display:inline;fill:#e60576;fill-opacity:1;stroke-width:0.110872;paint-order:stroke markers fill"
         id="path5482-9"
         cx="3.5433373"
         cy="9.4622755"
         r="2.0487247" />
      <circle
         style="display:inline;fill:#facd3d;fill-opacity:1;stroke-width:0.110872;paint-order:stroke markers fill"
         id="path5482-3"
         cx="9.3038578"
         cy="9.4622755"
         r="2.0487247" />
    </g>
  </g>
</svg>
